%YAML 1.1
%TAG !u! tag:unity3d.com,2011:
--- !u!1 &6202792281225583266
GameObject:
  m_ObjectHideFlags: 0
  m_CorrespondingSourceObject: {fileID: 0}
  m_PrefabInstance: {fileID: 0}
  m_PrefabAsset: {fileID: 0}
  serializedVersion: 6
  m_Component:
  - component: {fileID: 6202792281225583267}
  m_Layer: 0
  m_Name: Particles
  m_TagString: Untagged
  m_Icon: {fileID: 0}
  m_NavMeshLayer: 0
  m_StaticEditorFlags: 0
  m_IsActive: 1
--- !u!4 &6202792281225583267
Transform:
  m_ObjectHideFlags: 0
  m_CorrespondingSourceObject: {fileID: 0}
  m_PrefabInstance: {fileID: 0}
  m_PrefabAsset: {fileID: 0}
  m_GameObject: {fileID: 6202792281225583266}
  m_LocalRotation: {x: 0, y: 0, z: 0, w: 1}
  m_LocalPosition: {x: 0, y: 0, z: 0}
  m_LocalScale: {x: 1, y: 1, z: 1}
  m_Children:
  - {fileID: 6202792280846484540}
  - {fileID: 6202792280538646079}
  m_Father: {fileID: 0}
  m_RootOrder: 0
  m_LocalEulerAnglesHint: {x: 0, y: 0, z: 0}
--- !u!1001 &6202792280538873103
PrefabInstance:
  m_ObjectHideFlags: 0
  serializedVersion: 2
  m_Modification:
    m_TransformParent: {fileID: 6202792281225583267}
    m_Modifications:
    - target: {fileID: 170316, guid: 11f926089a397c94c82e74b3e88c4964, type: 3}
      propertyPath: m_Name
      value: Falling Leaves
      objectReference: {fileID: 0}
    - target: {fileID: 170316, guid: 11f926089a397c94c82e74b3e88c4964, type: 3}
      propertyPath: m_IsActive
      value: 1
      objectReference: {fileID: 0}
    - target: {fileID: 170316, guid: 11f926089a397c94c82e74b3e88c4964, type: 3}
      propertyPath: m_StaticEditorFlags
      value: 4294967295
      objectReference: {fileID: 0}
    - target: {fileID: 490288, guid: 11f926089a397c94c82e74b3e88c4964, type: 3}
      propertyPath: m_LocalPosition.x
      value: 95.55
      objectReference: {fileID: 0}
    - target: {fileID: 490288, guid: 11f926089a397c94c82e74b3e88c4964, type: 3}
      propertyPath: m_LocalPosition.y
      value: 7.61
      objectReference: {fileID: 0}
    - target: {fileID: 490288, guid: 11f926089a397c94c82e74b3e88c4964, type: 3}
      propertyPath: m_LocalPosition.z
      value: 79.09
      objectReference: {fileID: 0}
    - target: {fileID: 490288, guid: 11f926089a397c94c82e74b3e88c4964, type: 3}
      propertyPath: m_LocalRotation.x
      value: -0.7071068
      objectReference: {fileID: 0}
    - target: {fileID: 490288, guid: 11f926089a397c94c82e74b3e88c4964, type: 3}
      propertyPath: m_LocalRotation.y
      value: -0.000000029802326
      objectReference: {fileID: 0}
    - target: {fileID: 490288, guid: 11f926089a397c94c82e74b3e88c4964, type: 3}
      propertyPath: m_LocalRotation.z
      value: -0.000000029802326
      objectReference: {fileID: 0}
    - target: {fileID: 490288, guid: 11f926089a397c94c82e74b3e88c4964, type: 3}
      propertyPath: m_LocalRotation.w
      value: 0.7071068
      objectReference: {fileID: 0}
    - target: {fileID: 490288, guid: 11f926089a397c94c82e74b3e88c4964, type: 3}
      propertyPath: m_RootOrder
      value: 1
      objectReference: {fileID: 0}
    - target: {fileID: 490288, guid: 11f926089a397c94c82e74b3e88c4964, type: 3}
      propertyPath: m_LocalEulerAnglesHint.x
      value: 0
      objectReference: {fileID: 0}
    - target: {fileID: 490288, guid: 11f926089a397c94c82e74b3e88c4964, type: 3}
      propertyPath: m_LocalEulerAnglesHint.y
      value: 0
      objectReference: {fileID: 0}
    - target: {fileID: 490288, guid: 11f926089a397c94c82e74b3e88c4964, type: 3}
      propertyPath: m_LocalEulerAnglesHint.z
      value: 0
      objectReference: {fileID: 0}
    - target: {fileID: 490288, guid: 11f926089a397c94c82e74b3e88c4964, type: 3}
      propertyPath: m_LocalScale.y
      value: 1
      objectReference: {fileID: 0}
    - target: {fileID: 490288, guid: 11f926089a397c94c82e74b3e88c4964, type: 3}
      propertyPath: m_LocalScale.z
      value: 1
      objectReference: {fileID: 0}
    m_RemovedComponents: []
  m_SourcePrefab: {fileID: 100100000, guid: 11f926089a397c94c82e74b3e88c4964, type: 3}
--- !u!4 &6202792280538646079 stripped
Transform:
  m_CorrespondingSourceObject: {fileID: 490288, guid: 11f926089a397c94c82e74b3e88c4964,
    type: 3}
  m_PrefabInstance: {fileID: 6202792280538873103}
  m_PrefabAsset: {fileID: 0}
--- !u!1001 &6202792280846610016
PrefabInstance:
  m_ObjectHideFlags: 0
  serializedVersion: 2
  m_Modification:
    m_TransformParent: {fileID: 6202792281225583267}
    m_Modifications:
    - target: {fileID: 150522, guid: 6a4a86a43eeda814ca70ecb8f3d325c5, type: 3}
      propertyPath: m_Name
      value: Sun Shafts
      objectReference: {fileID: 0}
    - target: {fileID: 150522, guid: 6a4a86a43eeda814ca70ecb8f3d325c5, type: 3}
      propertyPath: m_IsActive
      value: 1
      objectReference: {fileID: 0}
    - target: {fileID: 150522, guid: 6a4a86a43eeda814ca70ecb8f3d325c5, type: 3}
      propertyPath: m_StaticEditorFlags
      value: 4294967295
      objectReference: {fileID: 0}
    - target: {fileID: 420444, guid: 6a4a86a43eeda814ca70ecb8f3d325c5, type: 3}
      propertyPath: m_LocalPosition.x
      value: 89.37
      objectReference: {fileID: 0}
    - target: {fileID: 420444, guid: 6a4a86a43eeda814ca70ecb8f3d325c5, type: 3}
      propertyPath: m_LocalPosition.y
      value: 4.93
      objectReference: {fileID: 0}
    - target: {fileID: 420444, guid: 6a4a86a43eeda814ca70ecb8f3d325c5, type: 3}
      propertyPath: m_LocalPosition.z
      value: 96.03
      objectReference: {fileID: 0}
    - target: {fileID: 420444, guid: 6a4a86a43eeda814ca70ecb8f3d325c5, type: 3}
      propertyPath: m_LocalRotation.x
      value: 0.9541625
      objectReference: {fileID: 0}
    - target: {fileID: 420444, guid: 6a4a86a43eeda814ca70ecb8f3d325c5, type: 3}
      propertyPath: m_LocalRotation.y
      value: -0
      objectReference: {fileID: 0}
    - target: {fileID: 420444, guid: 6a4a86a43eeda814ca70ecb8f3d325c5, type: 3}
      propertyPath: m_LocalRotation.z
      value: -0
      objectReference: {fileID: 0}
    - target: {fileID: 420444, guid: 6a4a86a43eeda814ca70ecb8f3d325c5, type: 3}
      propertyPath: m_LocalRotation.w
      value: -0.2992893
      objectReference: {fileID: 0}
    - target: {fileID: 420444, guid: 6a4a86a43eeda814ca70ecb8f3d325c5, type: 3}
      propertyPath: m_RootOrder
      value: 0
      objectReference: {fileID: 0}
    - target: {fileID: 420444, guid: 6a4a86a43eeda814ca70ecb8f3d325c5, type: 3}
      propertyPath: m_LocalEulerAnglesHint.x
      value: -145.17
      objectReference: {fileID: 0}
    - target: {fileID: 420444, guid: 6a4a86a43eeda814ca70ecb8f3d325c5, type: 3}
      propertyPath: m_LocalEulerAnglesHint.y
      value: 0
      objectReference: {fileID: 0}
    - target: {fileID: 420444, guid: 6a4a86a43eeda814ca70ecb8f3d325c5, type: 3}
      propertyPath: m_LocalEulerAnglesHint.z
      value: 0
      objectReference: {fileID: 0}
    - target: {fileID: 420444, guid: 6a4a86a43eeda814ca70ecb8f3d325c5, type: 3}
      propertyPath: m_LocalScale.y
      value: 1
      objectReference: {fileID: 0}
    - target: {fileID: 420444, guid: 6a4a86a43eeda814ca70ecb8f3d325c5, type: 3}
      propertyPath: m_LocalScale.z
      value: 1
      objectReference: {fileID: 0}
    m_RemovedComponents: []
  m_SourcePrefab: {fileID: 100100000, guid: 6a4a86a43eeda814ca70ecb8f3d325c5, type: 3}
--- !u!4 &6202792280846484540 stripped
Transform:
  m_CorrespondingSourceObject: {fileID: 420444, guid: 6a4a86a43eeda814ca70ecb8f3d325c5,
    type: 3}
  m_PrefabInstance: {fileID: 6202792280846610016}
  m_PrefabAsset: {fileID: 0}
