%YAML 1.1
%TAG !u! tag:unity3d.com,2011:
--- !u!21 &2100000
Material:
  serializedVersion: 6
  m_ObjectHideFlags: 0
  m_CorrespondingSourceObject: {fileID: 0}
  m_PrefabInstance: {fileID: 0}
  m_PrefabAsset: {fileID: 0}
  m_Name: Water Type 2
  m_Shader: {fileID: 4800000, guid: 12377391af0ebba4bb0ee26d5f4d6bc5, type: 3}
  m_ShaderKeywords: 
  m_LightmapFlags: 4
  m_EnableInstancingVariants: 0
  m_DoubleSidedGI: 0
  m_CustomRenderQueue: -1
  stringTagMap: {}
  disabledShaderPasses: []
  m_SavedProperties:
    serializedVersion: 3
    m_TexEnvs:
    - _BumpMap:
        m_Texture: {fileID: 0}
        m_Scale: {x: 1, y: 1}
        m_Offset: {x: 0, y: 0}
    - _BumpMapDetail:
        m_Texture: {fileID: 0}
        m_Scale: {x: 1, y: 1}
        m_Offset: {x: 0, y: 0}
    - _Detail:
        m_Texture: {fileID: 0}
        m_Scale: {x: 1, y: 1}
        m_Offset: {x: 0, y: 0}
    - _MainTex:
        m_Texture: {fileID: 0}
        m_Scale: {x: 1, y: 1}
        m_Offset: {x: 0, y: 0}
    - _ParallaxMap:
        m_Texture: {fileID: 0}
        m_Scale: {x: 1, y: 1}
        m_Offset: {x: 0, y: 0}
    m_Floats:
    - _ContrastMt: 1
    - _Glossiness: 0.5
    - _IntensityMicrowave: 0.5
    - _IntensityMt: 1
    - _IntensityNm: 1
    - _IntensityNmDetail: 1
    - _MainDetailFlow: 1
    - _MainDetailScale: 1
    - _Metallic: 0
    - _MicrowaveScale: 1
    - _NormalmapDetailScale: 0.5
    - _NormalmapDetailSpeed: 0.5
    - _Parallax: 0.1
    - _ParallaxScale: 1
    - _ReverseFlow: 1
    - _SoftFactor: 0.5
    m_Colors:
    - _Color: {r: 0.15, g: 0.161, b: 0.16, a: 1}
