%YAML 1.1
%TAG !u! tag:unity3d.com,2011:
--- !u!21 &2100000
Material:
  serializedVersion: 6
  m_ObjectHideFlags: 0
  m_CorrespondingSourceObject: {fileID: 0}
  m_PrefabInstance: {fileID: 0}
  m_PrefabAsset: {fileID: 0}
  m_Name: Rock01_a
  m_Shader: {fileID: 4800000, guid: 78c71c934e6c6484cb024c122aba0863, type: 3}
  m_ShaderKeywords: _DETAILBLENDDODGE_ON _METALLICGLOSSMAP _NORMALMAP
  m_LightmapFlags: 5
  m_EnableInstancingVariants: 1
  m_DoubleSidedGI: 0
  m_CustomRenderQueue: -1
  stringTagMap: {}
  disabledShaderPasses: []
  m_SavedProperties:
    serializedVersion: 3
    m_TexEnvs:
    - _AO:
        m_Texture: {fileID: 2800000, guid: c3d1733e7a6f5de48b9b5891910e7d3e, type: 3}
        m_Scale: {x: 1, y: 1}
        m_Offset: {x: 0, y: 0}
    - _Aldebo:
        m_Texture: {fileID: 2800000, guid: 583279f3a7f927946a03557ec36a9a19, type: 3}
        m_Scale: {x: 1, y: 1}
        m_Offset: {x: 0, y: 0}
    - _Ambient:
        m_Texture: {fileID: 2800000, guid: c3d1733e7a6f5de48b9b5891910e7d3e, type: 3}
        m_Scale: {x: 1, y: 1}
        m_Offset: {x: 0, y: 0}
    - _BumpMap:
        m_Texture: {fileID: 2800000, guid: 74778243b203fae4995e7fbcce34e13b, type: 3}
        m_Scale: {x: 1, y: 1}
        m_Offset: {x: 0, y: 0}
    - _CoverAlbedo:
        m_Texture: {fileID: 2800000, guid: fcd3c3e943f353e43a57fd55ba906969, type: 3}
        m_Scale: {x: 1, y: 1}
        m_Offset: {x: 0, y: 0}
    - _CoverNormal:
        m_Texture: {fileID: 2800000, guid: 3f20ef20876ad3a4695f8a262a25b3f8, type: 3}
        m_Scale: {x: 1, y: 1}
        m_Offset: {x: 0, y: 0}
    - _Detail:
        m_Texture: {fileID: 2800000, guid: d5778b011a311a94aa1c5a12e45ba931, type: 3}
        m_Scale: {x: 1, y: 1}
        m_Offset: {x: 0, y: 0}
    - _DetailAlbedoMap:
        m_Texture: {fileID: 0}
        m_Scale: {x: 8, y: 8}
        m_Offset: {x: 0, y: 0}
    - _DetailBump:
        m_Texture: {fileID: 2800000, guid: 0aa941ff34c44ab4ca8ff4d116159e89, type: 3}
        m_Scale: {x: 1, y: 1}
        m_Offset: {x: 0, y: 0}
    - _DetailMask:
        m_Texture: {fileID: 0}
        m_Scale: {x: 1, y: 1}
        m_Offset: {x: 0, y: 0}
    - _DetailNormalMap:
        m_Texture: {fileID: 0}
        m_Scale: {x: 1, y: 1}
        m_Offset: {x: 0, y: 0}
    - _EmissionMap:
        m_Texture: {fileID: 0}
        m_Scale: {x: 1, y: 1}
        m_Offset: {x: 0, y: 0}
    - _MainTex:
        m_Texture: {fileID: 2800000, guid: 583279f3a7f927946a03557ec36a9a19, type: 3}
        m_Scale: {x: 1, y: 1}
        m_Offset: {x: 0, y: 0}
    - _MaskBump:
        m_Texture: {fileID: 2800000, guid: 3f20ef20876ad3a4695f8a262a25b3f8, type: 3}
        m_Scale: {x: 1, y: 1}
        m_Offset: {x: 0, y: 0}
    - _MaskRGBA:
        m_Texture: {fileID: 2800000, guid: af0add849386ba549b9513dfd1155c76, type: 3}
        m_Scale: {x: 1, y: 1}
        m_Offset: {x: 0, y: 0}
    - _MaskyMixAlbedo:
        m_Texture: {fileID: 2800000, guid: fcd3c3e943f353e43a57fd55ba906969, type: 3}
        m_Scale: {x: 1, y: 1}
        m_Offset: {x: 0, y: 0}
    - _MaskyMixBumpMap:
        m_Texture: {fileID: 2800000, guid: 3f20ef20876ad3a4695f8a262a25b3f8, type: 3}
        m_Scale: {x: 1, y: 1}
        m_Offset: {x: 0, y: 0}
    - _MaskyMixMask:
        m_Texture: {fileID: 0}
        m_Scale: {x: 1, y: 1}
        m_Offset: {x: 0, y: 0}
    - _MetallicGlossMap:
        m_Texture: {fileID: 2800000, guid: 730bca794a7d95a408112fd3465bce14, type: 3}
        m_Scale: {x: 1, y: 1}
        m_Offset: {x: 0, y: 0}
    - _Microdetail:
        m_Texture: {fileID: 2800000, guid: d5778b011a311a94aa1c5a12e45ba931, type: 3}
        m_Scale: {x: 1, y: 1}
        m_Offset: {x: 0, y: 0}
    - _MicrodetailNormal:
        m_Texture: {fileID: 2800000, guid: 0aa941ff34c44ab4ca8ff4d116159e89, type: 3}
        m_Scale: {x: 1, y: 1}
        m_Offset: {x: 0, y: 0}
    - _Normalmap:
        m_Texture: {fileID: 2800000, guid: 74778243b203fae4995e7fbcce34e13b, type: 3}
        m_Scale: {x: 1, y: 1}
        m_Offset: {x: 0, y: 0}
    - _OcclusionMap:
        m_Texture: {fileID: 2800000, guid: c3d1733e7a6f5de48b9b5891910e7d3e, type: 3}
        m_Scale: {x: 1, y: 1}
        m_Offset: {x: 0, y: 0}
    - _ParallaxMap:
        m_Texture: {fileID: 0}
        m_Scale: {x: 1, y: 1}
        m_Offset: {x: 0, y: 0}
    - _RockAlbedo:
        m_Texture: {fileID: 2800000, guid: 583279f3a7f927946a03557ec36a9a19, type: 3}
        m_Scale: {x: 1, y: 1}
        m_Offset: {x: 0, y: 0}
    - _RockMetallicGloss:
        m_Texture: {fileID: 2800000, guid: 730bca794a7d95a408112fd3465bce14, type: 3}
        m_Scale: {x: 1, y: 1}
        m_Offset: {x: 0, y: 0}
    - _RockNormal:
        m_Texture: {fileID: 2800000, guid: 74778243b203fae4995e7fbcce34e13b, type: 3}
        m_Scale: {x: 1, y: 1}
        m_Offset: {x: 0, y: 0}
    - _SpecGlossMap:
        m_Texture: {fileID: 0}
        m_Scale: {x: 1, y: 1}
        m_Offset: {x: 0, y: 0}
    - _texcoord:
        m_Texture: {fileID: 0}
        m_Scale: {x: 1, y: 1}
        m_Offset: {x: 0, y: 0}
    m_Floats:
    - _AOPower: 0.5
    - _BumpScale: 1
    - _CoverAmount: 0.5
    - _CoverNormalPower: 0.5
    - _CoverTiling: 0.5
    - _Cutoff: 0
    - _DetailBlendDodge: 1
    - _DetailBumpInt: 0.83
    - _DetailDiffInt: 1
    - _DetailNormalMapScale: 1
    - _Detailscale: 10.1
    - _DstBlend: 0
    - _EmissionScaleUI: 0
    - _Gloss: 0.15
    - _Glossiness: 0
    - _MaskBumpInt: 2
    - _MaskPower: 1.5
    - _Maskscale: 4
    - _MaskyMixBumpScale: 1
    - _MaskyMixMaskFalloff: 0.4
    - _MaskyMixMaskThresholdHi: 1
    - _MaskyMixMaskThresholdLow: 0.72
    - _MaskyMixMaskTile: 1
    - _MaskyMixUVTile: 10
    - _MetaAlbedoDesaturation: 0
    - _Metallic: 0
    - _MicrodetailAlbedo: 1
    - _MicrodetailNormalPower: 0.5
    - _MicrodetailTiling: 0.5
    - _Mode: 0
    - _NormalPower: 0.5
    - _NormalmapInt: 1
    - _OcclusionStrength: 1
    - _Parallax: 0.005
    - _SmoothBlend: 0
    - _SmoothnessInAlbedo: 0
    - _SrcBlend: 1
    - _UVSec: 0
    - _ZWrite: 1
    - __dirty: 0
    m_Colors:
    - _Color: {r: 1, g: 1, b: 1, a: 1}
    - _ColorMask: {r: 1, g: 1, b: 1, a: 1}
    - _EmissionColor: {r: 0, g: 0, b: 0, a: 0}
    - _EmissionColorUI: {r: 1, g: 1, b: 1, a: 1}
    - _MaskColor: {r: 1, g: 1, b: 1, a: 1}
    - _MaskyMixColor: {r: 0.5, g: 0.5, b: 0.5, a: 0.5}
    - _MaskyMixSpecColor: {r: 0, g: 0, b: 0, a: 1}
    - _MaskyMixWorldDirection: {r: 0, g: 1, b: 0, a: 0}
    - _MetaAlbedoAdd: {r: 0, g: 0, b: 0, a: 0}
    - _MetaAlbedoTint: {r: 1, g: 1, b: 1, a: 1}
    - _SpecColor: {r: 0.38235295, g: 0.38235295, b: 0.38235295, a: 1}
