%YAML 1.1
%TAG !u! tag:unity3d.com,2011:
--- !u!1 &5030547503733086540
GameObject:
  m_ObjectHideFlags: 0
  m_CorrespondingSourceObject: {fileID: 0}
  m_PrefabInstance: {fileID: 0}
  m_PrefabAsset: {fileID: 0}
  serializedVersion: 6
  m_Component:
  - component: {fileID: 8325820447923628895}
  m_Layer: 0
  m_Name: 1 AppleRealistic
  m_TagString: Untagged
  m_Icon: {fileID: 0}
  m_NavMeshLayer: 0
  m_StaticEditorFlags: 0
  m_IsActive: 1
--- !u!4 &8325820447923628895
Transform:
  m_ObjectHideFlags: 0
  m_CorrespondingSourceObject: {fileID: 0}
  m_PrefabInstance: {fileID: 0}
  m_PrefabAsset: {fileID: 0}
  m_GameObject: {fileID: 5030547503733086540}
  m_LocalRotation: {x: -0.17940821, y: -0.40673545, z: -0.4767506, w: 0.7583455}
  m_LocalPosition: {x: 0, y: 0, z: 0}
  m_LocalScale: {x: 1, y: 1, z: 1}
  m_Children:
  - {fileID: 9064175435636676890}
  m_Father: {fileID: 0}
  m_RootOrder: 0
  m_LocalEulerAnglesHint: {x: -41.295002, y: -36.398003, z: -50.189003}
--- !u!1001 &4085010355366638080
PrefabInstance:
  m_ObjectHideFlags: 0
  serializedVersion: 2
  m_Modification:
    m_TransformParent: {fileID: 8325820447923628895}
    m_Modifications:
    - target: {fileID: -4216859302048453862, guid: 127ed3cff9c96af4e8de6ad7fcefb1f0,
        type: 3}
      propertyPath: m_LocalPosition.x
      value: -0.77751297
      objectReference: {fileID: 0}
    - target: {fileID: -4216859302048453862, guid: 127ed3cff9c96af4e8de6ad7fcefb1f0,
        type: 3}
      propertyPath: m_LocalPosition.y
      value: -0.9081491
      objectReference: {fileID: 0}
    - target: {fileID: -4216859302048453862, guid: 127ed3cff9c96af4e8de6ad7fcefb1f0,
        type: 3}
      propertyPath: m_LocalPosition.z
      value: -0.6847321
      objectReference: {fileID: 0}
    - target: {fileID: -4216859302048453862, guid: 127ed3cff9c96af4e8de6ad7fcefb1f0,
        type: 3}
      propertyPath: m_LocalRotation.x
      value: 0.56757325
      objectReference: {fileID: 0}
    - target: {fileID: -4216859302048453862, guid: 127ed3cff9c96af4e8de6ad7fcefb1f0,
        type: 3}
      propertyPath: m_LocalRotation.y
      value: 0.60211504
      objectReference: {fileID: 0}
    - target: {fileID: -4216859302048453862, guid: 127ed3cff9c96af4e8de6ad7fcefb1f0,
        type: 3}
      propertyPath: m_LocalRotation.z
      value: 0.17373085
      objectReference: {fileID: 0}
    - target: {fileID: -4216859302048453862, guid: 127ed3cff9c96af4e8de6ad7fcefb1f0,
        type: 3}
      propertyPath: m_LocalRotation.w
      value: 0.5339811
      objectReference: {fileID: 0}
    - target: {fileID: -4216859302048453862, guid: 127ed3cff9c96af4e8de6ad7fcefb1f0,
        type: 3}
      propertyPath: m_RootOrder
      value: 0
      objectReference: {fileID: 0}
    - target: {fileID: -4216859302048453862, guid: 127ed3cff9c96af4e8de6ad7fcefb1f0,
        type: 3}
      propertyPath: m_LocalEulerAnglesHint.x
      value: 66.873
      objectReference: {fileID: 0}
    - target: {fileID: -4216859302048453862, guid: 127ed3cff9c96af4e8de6ad7fcefb1f0,
        type: 3}
      propertyPath: m_LocalEulerAnglesHint.y
      value: 0
      objectReference: {fileID: 0}
    - target: {fileID: -4216859302048453862, guid: 127ed3cff9c96af4e8de6ad7fcefb1f0,
        type: 3}
      propertyPath: m_LocalEulerAnglesHint.z
      value: 0
      objectReference: {fileID: 0}
    - target: {fileID: -4216859302048453862, guid: 127ed3cff9c96af4e8de6ad7fcefb1f0,
        type: 3}
      propertyPath: m_LocalScale.x
      value: 0.23656003
      objectReference: {fileID: 0}
    - target: {fileID: -4216859302048453862, guid: 127ed3cff9c96af4e8de6ad7fcefb1f0,
        type: 3}
      propertyPath: m_LocalScale.y
      value: 0.23656002
      objectReference: {fileID: 0}
    - target: {fileID: -4216859302048453862, guid: 127ed3cff9c96af4e8de6ad7fcefb1f0,
        type: 3}
      propertyPath: m_LocalScale.z
      value: 0.23656005
      objectReference: {fileID: 0}
    - target: {fileID: -1504981713932161579, guid: 127ed3cff9c96af4e8de6ad7fcefb1f0,
        type: 3}
      propertyPath: m_Materials.Array.data[0]
      value: 
      objectReference: {fileID: 2100000, guid: d1412cd2038255548bb2bc2ee98244b7, type: 2}
    - target: {fileID: -927199367670048503, guid: 127ed3cff9c96af4e8de6ad7fcefb1f0,
        type: 3}
      propertyPath: m_Name
      value: AppleIn
      objectReference: {fileID: 0}
    - target: {fileID: -927199367670048503, guid: 127ed3cff9c96af4e8de6ad7fcefb1f0,
        type: 3}
      propertyPath: m_IsActive
      value: 1
      objectReference: {fileID: 0}
    m_RemovedComponents: []
  m_SourcePrefab: {fileID: 100100000, guid: 127ed3cff9c96af4e8de6ad7fcefb1f0, type: 3}
--- !u!4 &9064175435636676890 stripped
Transform:
  m_CorrespondingSourceObject: {fileID: -4216859302048453862, guid: 127ed3cff9c96af4e8de6ad7fcefb1f0,
    type: 3}
  m_PrefabInstance: {fileID: 4085010355366638080}
  m_PrefabAsset: {fileID: 0}
